…
+ 1 前1000行的数据类型可能是特例，导致 `readr` 判断错误。例如，一个数据类型为双精度的列，前1000行可能只有整数。

+ 2 数据中可能存在很多缺失值。如果前1000行都是 `NA` ， `readr` 会将该列视为字符串向量。

`readr` 中有一个包含以上两个问题的示例CSV文件：
```{r}
challenge <- read_csv(readr_example("challenge.csv"))
```
warning 中包含两个信息：1.通过前1000行判断的数据类型；2.前5个解析错误。通过 `problem()` 更深入地展示解析错误。
```{r}
problems(challenge)
```
```
#> # A tibble: 1,000 × 4
#>     row   col               expected             actual
#>   <int> <chr>                  <chr>              <chr>
#> 1  1001     x no trailing characters .23837975086644292
#> 2  1002     x no trailing characters .41167997173033655
#> 3  1003     x no trailing characters  .7460716762579978
#> 4  1004     x no trailing characters   .723450553836301
#> 5  1005     x no trailing characters   .614524137461558
#> 6  1006     x no trailing characters   .473980569280684
#> # ... with 994 more rows
```
…
每一个 `parse_xyz()` 函数都对应一个 `col_xyz()` 函数。 `parse_xyz()` 函数用于解析已经载入 `R` 中的字符串向量， `col_xyz()` 函数用于告诉 `readr` 如何解析文件。

建议在每次解析文件时都使用 `col_types` ，可以确保数据载入脚本的一致性和可移植性。还可以使用 `stop_for_problems()` ，它会在产生解析错误时报错并中止程序运行。

## 4.3 其他解决解析错误问题的方法
+ 1 使用更多的行来判断数据类型
```{r}
challenge2 <- read_csv(readr_example("challenge.csv"), guess_max = 1001)
```
```{r}
challenge2
```
```
#> # A tibble: 2,000 × 2
#>       x      y
#>   <dbl> <date>
#> 1   404   <NA>
#> 2  4172   <NA>
#> 3  3004   <NA>
#> 4   787   <NA>
#> 5    37   <NA>
#> 6  2332   <NA>
#> # ... with 1,994 more rows
```
…
+ 2 使用ISO8601标准保存日期和时间

通过 `na` 参数设定文件中如何表示缺失值，通过 `append` 参数设定是否覆盖已有文件。

```
write_csv(challenge, "challenge.csv")
```

## 5.2 读写过程中丢失数据类型
以下文件写出、读入的过程，丢失了变量 `y` 的数据类型
```{r}
challenge
```
```
#> # A tibble: 2,000 × 2
#>       x      y
#>   <dbl> <date>
#> 1   404   <NA>
#> 2  4172   <NA>
#> 3  3004   <NA>
#> 4   787   <NA>
#> 5    37   <NA>
#> 6  2332   <NA>
#> # ... with 1,994 more rows
```
```
write_csv(challenge, "challenge-2.csv")
```
```
read_csv("challenge-2.csv")
```
```
#> Parsed with column specification:
#> cols(
#>   x = col_double(),
#>   y = col_character()
#> )
#> # A tibble: 2,000 × 2
#>       x     y
#>   <dbl> <chr>
#> 1   404  <NA>
#> 2  4172  <NA>
#> 3  3004  <NA>
#> 4   787  <NA>
#> 5    37  <NA>
#> 6  2332  <NA>
#> # ... with 1,994 more rows
```
有以下3种解决办法：  

+ 1 在每次读取文件时指定变量的数据类型。

+ 2 使用 `write_rds()` 和 `read_rds()` 函数，它们是对 `R` 中 `readRDS()` 和 `saveRDS()` 函数的封装，会将数据存储为二进制格式 `RDS` 。
```
write_rds(challenge, "challenge.rds")
```
```
read_rds("challenge.rds")
```
```
#> # A tibble: 2,000 × 2
#>       x      y
#>   <dbl> <date>
#> 1   404   <NA>
#> 2  4172   <NA>
#> 3  3004   <NA>
#> 4   787   <NA>
#> 5    37   <NA>
#> 6  2332   <NA>
#> # ... with 1,994 more rows
```

+ 3 `feather` 包能够将文件快速存储为二进制格式，并且能够跨语言使用
```{r}
library(feather)
```
```
write_feather(challenge, "challenge.feather")
```
```
read_feather("challenge.feather")
```
```
#> # A tibble: 2,000 x 2
#>       x      y
#>   <dbl> <date>
#> 1   404   <NA>
#> 2  4172   <NA>
#> 3  3004   <NA>
#> 4   787   <NA>
#> 5    37   <NA>
#> 6  2332   <NA>
#> # ... with 1,994 more rows
```
…
