探索性数据分析
…
直方图的高度代表每一个封箱中样本的个数，可以使用 dplyr::count() 和 ggplot2::cut_width() 来计算得到：

diamonds %>% 
  count(cut_width(carat, 0.5))

#> # A tibble: 11 × 2
#>   `cut_width(carat, 0.5)`     n
#>                    <fctr> <int>
#> 1            [-0.25,0.25]   785
#> 2             (0.25,0.75] 29498
#> 3             (0.75,1.25] 15977
#> 4             (1.25,1.75]  5313
#> 5             (1.75,2.25]  2002
#> 6             (2.25,2.75]   322
#> # ... with 5 more rows
…
diamonds %>% 
  count(color, cut)

#> Source: local data frame [35 x 3]
#> Groups: color [?]
#> 
#>   color       cut     n
#>   <ord>     <ord> <int>
#> 1     D      Fair   163
#> 2     D      Good   662
#> 3     D Very Good  1513
#> 4     D   Premium  1603
#> 5     D     Ideal  2834
#> 6     E      Fair   224
#> # ... with 29 more rows
…
