…
+ 使用直方图 `geom_histogram` 观察连续型变量的分布
```{r}
ggplot(data = diamonds) +
  geom_histogram(mapping = aes(x = carat), binwidth = 0.5)
```
直方图的高度代表每一个封箱中样本的个数，可以使用 `dplyr::count()` 和 `ggplot2::cut_width()` 来计算得到：
```{r}
diamonds %>% 
  count(cut_width(carat, 0.5))
```
```
#> # A tibble: 11 × 2
#>   `cut_width(carat, 0.5)`     n
#>                    <fctr> <int>
#> 1            [-0.25,0.25]   785
#> 2             (0.25,0.75] 29498
#> 3             (0.75,1.25] 15977
#> 4             (1.25,1.75]  5313
#> 5             (1.75,2.25]  2002
#> 6             (2.25,2.75]   322
#> # ... with 5 more rows
```
…
