…
+ `fct_reorder2()` 用最大 `x` 情况下 `y` 的取值来对 `f` 进行排序：
```{r}
by_age <- gss_cat %>%
  filter(!is.na(age)) %>%
  group_by(age, marital) %>%
  count() %>%
  mutate(prop = n / sum(n))

by_age
```
```
#> Source: local data frame [351 x 4]
#> Groups: age [72]
#> 
#>      age       marital     n        prop
#>    <int>        <fctr> <int>       <dbl>
#> 1     18 Never married    89 0.978021978
#> 2     18       Married     2 0.021978022
#> 3     19 Never married   234 0.939759036
#> 4     19      Divorced     3 0.012048193
#> 5     19       Widowed     1 0.004016064
#> 6     19       Married    11 0.044176707
#> 7     20 Never married   227 0.904382470
#> 8     20     Separated     1 0.003984064
#> 9     20      Divorced     2 0.007968127
#> 10    20       Married    21 0.083665339
#> # ... with 341 more rows
```
```{r}
ggplot(by_age, aes(age, prop, colour = marital)) +
  geom_line(na.rm = TRUE)

```

按照最大 `age` (89岁）下的 `prop` 的取值，从高到低来对 `martial` 因子的水平值进行排序
```{r}
by_age %>%
  select(age, marital, prop) %>%
  spread(marital, prop) %>%
  arrange(desc(age))
```
```
#> Source: local data frame [72 x 7]
#> Groups: age [72]
#> 
#>      age `No answer` `Never married`   Separated   Divorced   Widowed   Married
#>    <int>       <dbl>           <dbl>       <dbl>      <dbl>     <dbl>     <dbl>
#> 1     89          NA      0.04054054          NA 0.06081081 0.7297297 0.1689189
#> 2     88          NA      0.03508772          NA 0.01754386 0.6315789 0.3157895
#> 3     87          NA      0.01851852          NA         NA 0.7962963 0.1851852
#> 4     86  0.01351351      0.02702703 0.013513514 0.05405405 0.5675676 0.3243243
#> 5     85          NA      0.01333333          NA 0.05333333 0.5866667 0.3466667
#> 6     84          NA      0.03000000          NA 0.07000000 0.6400000 0.2600000
#> 7     83          NA      0.09090909 0.010101010 0.07070707 0.5353535 0.2929293
#> 8     82          NA      0.00952381 0.009523810 0.08571429 0.5333333 0.3619048
#> 9     81          NA      0.04201681 0.008403361 0.08403361 0.5294118 0.3361345
#> 10    80          NA      0.03937008          NA 0.04724409 0.5039370 0.4094488
#> # ... with 62 more rows
```
…
+ `fct_rev()` 翻转因子水平值的排序：
```{r}
gss_cat %>%
  mutate(marital = marital %>% fct_infreq() %>% fct_rev()) %>%
  ggplot(aes(marital)) +
    geom_bar()
```

# 5 更改因子的水平值
+ `fct_recode()` 可以更改因子的水平值
```{r}
gss_cat %>% count(partyid)
```
```
#> # A tibble: 10 × 2
#>              partyid     n
#>               <fctr> <int>
#> 1          No answer   154
#> 2         Don't know     1
#> 3        Other party   393
#> 4  Strong republican  2314
#> 5 Not str republican  3032
#> 6       Ind,near rep  1791
#> # ... with 4 more rows
```
…
```{r}
gss_cat %>%
  mutate(partyid = fct_recode(partyid,
    "Republican, strong"    = "Strong republican",
    "Republican, weak"      = "Not str republican",
    "Independent, near rep" = "Ind,near rep",
    "Independent, near dem" = "Ind,near dem",
    "Democrat, weak"        = "Not str democrat",
    "Democrat, strong"      = "Strong democrat"
  )) %>%
  count(partyid)
```
```
#> # A tibble: 10 × 2
#>                 partyid     n
#>                  <fctr> <int>
#> 1             No answer   154
#> 2            Don't know     1
#> 3           Other party   393
#> 4    Republican, strong  2314
#> 5      Republican, weak  3032
#> 6 Independent, near rep  1791
#> # ... with 4 more rows
```
…
  mutate(partyid = fct_recode(partyid,
    "Republican, strong"    = "Strong republican",
    "Republican, weak"      = "Not str republican",
    "Independent, near rep" = "Ind,near rep",
    "Independent, near dem" = "Ind,near dem",
    "Democrat, weak"        = "Not str democrat",
    "Democrat, strong"      = "Strong democrat",
    "Other"                 = "No answer",
    "Other"                 = "Don't know",
    "Other"                 = "Other party"
  )) %>%
  count(partyid)
```
```
#> # A tibble: 8 × 2
#>                 partyid     n
#>                  <fctr> <int>
#> 1                 Other   548
#> 2    Republican, strong  2314
#> 3      Republican, weak  3032
#> 4 Independent, near rep  1791
#> 5           Independent  4119
#> 6 Independent, near dem  2499
#> # ... with 2 more rows
```
…
