…
# 1 前提准备
```{r}
library(modelr)
library(tidyverse)
```

# 2 `gapminder` 数据集
```{r}
library(gapminder)
```
```{r}
gapminder
```
```
#> # A tibble: 1,704 × 6
#>       country continent  year lifeExp      pop gdpPercap
#>        <fctr>    <fctr> <int>   <dbl>    <int>     <dbl>
#> 1 Afghanistan      Asia  1952    28.8  8425333       779
#> 2 Afghanistan      Asia  1957    30.3  9240934       821
#> 3 Afghanistan      Asia  1962    32.0 10267083       853
#> 4 Afghanistan      Asia  1967    34.0 11537966       836
#> 5 Afghanistan      Asia  1972    36.1 13079460       740
#> 6 Afghanistan      Asia  1977    38.4 14880372       786
#> # ... with 1,698 more rows
```
…
如何对所有国家进行同样的操作呢？

## 2.1 嵌套数据框
不同于使用 `purrr` 中的 `map` 函数族来对列进行循环操作，这里要针对不同国家进行循环操作，即对行进行循环操作。为了达到这一目的，需要借助**嵌套数据框（nested data frame）**，使用 `nest()` 函数：
```{r}
by_country <- gapminder %>% 
  group_by(country, continent) %>% 
  nest()

by_country
```
```
#> # A tibble: 142 × 3
#>       country continent              data
#>        <fctr>    <fctr>            <list>
#> 1 Afghanistan      Asia <tibble [12 × 4]>
#> 2     Albania    Europe <tibble [12 × 4]>
#> 3     Algeria    Africa <tibble [12 × 4]>
#> 4      Angola    Africa <tibble [12 × 4]>
#> 5   Argentina  Americas <tibble [12 × 4]>
#> 6   Australia   Oceania <tibble [12 × 4]>
#> # ... with 136 more rows
```

嵌套数据框中每一行都代表一个分组， `data` 一列由数据框构成，包含了该分组的所有数据：
```{r}
by_country$data[[1]]
```
```
#> # A tibble: 12 × 4
#>    year lifeExp      pop gdpPercap
#>   <int>   <dbl>    <int>     <dbl>
#> 1  1952    28.8  8425333       779
#> 2  1957    30.3  9240934       821
#> 3  1962    32.0 10267083       853
#> 4  1967    34.0 11537966       836
#> 5  1972    36.1 13079460       740
#> 6  1977    38.4 14880372       786
#> # ... with 6 more rows
```
…
由于 `data` 列相当于一个列表，可以通过 `purrr::map()` 函数来对每个元素循环使用 `country_model()` 函数：
```{r}
models <- map(by_country$data, country_model)
```

可以将 `models` 存储为 `by_country` 的一个列表-列：
```{r}
by_country <- by_country %>% 
  mutate(model = map(data, country_model))

by_country
```
```
#> # A tibble: 142 × 4
#>       country continent              data    model
#>        <fctr>    <fctr>            <list>   <list>
#> 1 Afghanistan      Asia <tibble [12 × 4]> <S3: lm>
#> 2     Albania    Europe <tibble [12 × 4]> <S3: lm>
#> 3     Algeria    Africa <tibble [12 × 4]> <S3: lm>
#> 4      Angola    Africa <tibble [12 × 4]> <S3: lm>
#> 5   Argentina  Americas <tibble [12 × 4]> <S3: lm>
#> 6   Australia   Oceania <tibble [12 × 4]> <S3: lm>
#> # ... with 136 more rows
```

这样做的好处在于，所有的数据和模型储存在一起，可以同时对它们进行操作：
```{r}
by_country %>% 
  filter(continent == "Europe")
```
```
#> # A tibble: 30 × 4
#>                  country continent              data    model
#>                   <fctr>    <fctr>            <list>   <list>
#> 1                Albania    Europe <tibble [12 × 4]> <S3: lm>
#> 2                Austria    Europe <tibble [12 × 4]> <S3: lm>
#> 3                Belgium    Europe <tibble [12 × 4]> <S3: lm>
#> 4 Bosnia and Herzegovina    Europe <tibble [12 × 4]> <S3: lm>
#> 5               Bulgaria    Europe <tibble [12 × 4]> <S3: lm>
#> 6                Croatia    Europe <tibble [12 × 4]> <S3: lm>
#> # ... with 24 more rows
```

```{r}
by_country %>% 
  arrange(continent, country)
```
```
#> # A tibble: 142 × 4
#>        country continent              data    model
#>         <fctr>    <fctr>            <list>   <list>
#> 1      Algeria    Africa <tibble [12 × 4]> <S3: lm>
#> 2       Angola    Africa <tibble [12 × 4]> <S3: lm>
#> 3        Benin    Africa <tibble [12 × 4]> <S3: lm>
#> 4     Botswana    Africa <tibble [12 × 4]> <S3: lm>
#> 5 Burkina Faso    Africa <tibble [12 × 4]> <S3: lm>
#> 6      Burundi    Africa <tibble [12 × 4]> <S3: lm>
#> # ... with 136 more rows
```

## 2.3 解嵌套
对每个分组内的模型和数据计算残差：
```{r}
by_country <- by_country %>% 
  mutate(
    resids = map2(data, model, add_residuals)
  )

by_country
```
```
#> # A tibble: 142 × 5
#>       country continent              data    model            resids
#>        <fctr>    <fctr>            <list>   <list>            <list>
#> 1 Afghanistan      Asia <tibble [12 × 4]> <S3: lm> <tibble [12 × 5]>
#> 2     Albania    Europe <tibble [12 × 4]> <S3: lm> <tibble [12 × 5]>
#> 3     Algeria    Africa <tibble [12 × 4]> <S3: lm> <tibble [12 × 5]>
#> 4      Angola    Africa <tibble [12 × 4]> <S3: lm> <tibble [12 × 5]>
#> 5   Argentina  Americas <tibble [12 × 4]> <S3: lm> <tibble [12 × 5]>
#> 6   Australia   Oceania <tibble [12 × 4]> <S3: lm> <tibble [12 × 5]>
#> # ... with 136 more rows
```

使用 `unnest()` 函数将嵌套数据框解嵌套为常规数据框：
```{r}
resids <- unnest(by_country, resids)

resids
```
```
#> # A tibble: 1,704 × 7
#>       country continent  year lifeExp      pop gdpPercap   resid
#>        <fctr>    <fctr> <int>   <dbl>    <int>     <dbl>   <dbl>
#> 1 Afghanistan      Asia  1952    28.8  8425333       779 -1.1063
#> 2 Afghanistan      Asia  1957    30.3  9240934       821 -0.9519
#> 3 Afghanistan      Asia  1962    32.0 10267083       853 -0.6636
#> 4 Afghanistan      Asia  1967    34.0 11537966       836 -0.0172
#> 5 Afghanistan      Asia  1972    36.1 13079460       740  0.6741
#> 6 Afghanistan      Asia  1977    38.4 14880372       786  1.6475
#> # ... with 1,698 more rows
```
…
## 2.4 模型评价
`broom::glance()` 函数可以给出一些模型评价指标：
```{r}
broom::glance(nz_mod)
```

使用 `mutate()` 和 `unnest()` 为每个模型添加评价指标：
```{r}
by_country %>% 
  mutate(glance = map(model, broom::glance)) %>% 
  unnest(glance)
```
```
#> # A tibble: 142 × 16
#>        country continent              data    model            resids r.squared
#>         <fctr>    <fctr>            <list>   <list>            <list>     <dbl>
#> 1  Afghanistan      Asia <tibble [12 × 4]> <S3: lm> <tibble [12 × 5]> 0.9477123
#> 2      Albania    Europe <tibble [12 × 4]> <S3: lm> <tibble [12 × 5]> 0.9105778
#> 3      Algeria    Africa <tibble [12 × 4]> <S3: lm> <tibble [12 × 5]> 0.9851172
#> 4       Angola    Africa <tibble [12 × 4]> <S3: lm> <tibble [12 × 5]> 0.8878146
#> 5    Argentina  Americas <tibble [12 × 4]> <S3: lm> <tibble [12 × 5]> 0.9955681
#> 6    Australia   Oceania <tibble [12 × 4]> <S3: lm> <tibble [12 × 5]> 0.9796477
#> 7      Austria    Europe <tibble [12 × 4]> <S3: lm> <tibble [12 × 5]> 0.9921340
#> 8      Bahrain      Asia <tibble [12 × 4]> <S3: lm> <tibble [12 × 5]> 0.9667398
#> 9   Bangladesh      Asia <tibble [12 × 4]> <S3: lm> <tibble [12 × 5]> 0.9893609
#> 10     Belgium    Europe <tibble [12 × 4]> <S3: lm> <tibble [12 × 5]> 0.9945406
#> # ... with 132 more rows, and 10 more variables: adj.r.squared <dbl>,
#> #   sigma <dbl>, statistic <dbl>, p.value <dbl>, df <int>, logLik <dbl>,
#> #   AIC <dbl>, BIC <dbl>, deviance <dbl>, df.residual <int>
```

使用 `.drop = TRUE` 参数，丢弃所有的列表-列：
```{r}
glance <- by_country %>% 
  mutate(glance = map(model, broom::glance)) %>% 
  unnest(glance, .drop = TRUE)

glance
```
```
#> # A tibble: 142 × 13
#>       country continent r.squared adj.r.squared sigma statistic  p.value
#>        <fctr>    <fctr>     <dbl>         <dbl> <dbl>     <dbl>    <dbl>
#> 1 Afghanistan      Asia     0.948         0.942 1.223     181.2 9.84e-08
#> 2     Albania    Europe     0.911         0.902 1.983     101.8 1.46e-06
#> 3     Algeria    Africa     0.985         0.984 1.323     661.9 1.81e-10
#> 4      Angola    Africa     0.888         0.877 1.407      79.1 4.59e-06
#> 5   Argentina  Americas     0.996         0.995 0.292    2246.4 4.22e-13
#> 6   Australia   Oceania     0.980         0.978 0.621     481.3 8.67e-10
#> # ... with 136 more rows, and 6 more variables: df <int>, logLik <dbl>,
#> #   AIC <dbl>, BIC <dbl>, deviance <dbl>, df.residual <int>
```

找出拟合效果较差的模型，可以发现 $R^2$ 较低的模型都集中在非洲：
```{r}
glance %>% 
  arrange(r.squared)
```
```
#> # A tibble: 142 × 13
#>     country continent r.squared adj.r.squared sigma statistic p.value
#>      <fctr>    <fctr>     <dbl>         <dbl> <dbl>     <dbl>   <dbl>
#> 1    Rwanda    Africa    0.0172      -0.08112  6.56     0.175   0.685
#> 2  Botswana    Africa    0.0340      -0.06257  6.11     0.352   0.566
#> 3  Zimbabwe    Africa    0.0562      -0.03814  7.21     0.596   0.458
#> 4    Zambia    Africa    0.0598      -0.03418  4.53     0.636   0.444
#> 5 Swaziland    Africa    0.0682      -0.02497  6.64     0.732   0.412
#> 6   Lesotho    Africa    0.0849      -0.00666  5.93     0.927   0.358
#> # ... with 136 more rows, and 6 more variables: df <int>, logLik <dbl>,
#> #   AIC <dbl>, BIC <dbl>, deviance <dbl>, df.residual <int>
```
…
+ 4 使用 `tibble::enframe()` 从有命名的列表中创建列表-列。

## 4.1 `nest()` 函数
`nest()` 可以创建嵌套数据框，即包含列表-列的数据框。在嵌套数据框中，每一行都是一个元观测（meta-observation）：其他常规列定义观测，例如上文中的 `country` 和 `continent` ，列表-列包含该元观测的信息。

有两种使用 `nest()` 的方法：  

+ 对分组数据框使用 `nest()` ，分组列不变，将其他列组合成列表-列：
```{r}
gapminder %>% 
  group_by(country, continent) %>% 
  nest()
```
```
#> # A tibble: 142 × 3
#>       country continent              data
#>        <fctr>    <fctr>            <list>
#> 1 Afghanistan      Asia <tibble [12 × 4]>
#> 2     Albania    Europe <tibble [12 × 4]>
#> 3     Algeria    Africa <tibble [12 × 4]>
#> 4      Angola    Africa <tibble [12 × 4]>
#> 5   Argentina  Americas <tibble [12 × 4]>
#> 6   Australia   Oceania <tibble [12 × 4]>
#> # ... with 136 more rows
```

+ 对未分组数据框使用 `nest()` ，选择需要嵌套进列表-列的列：
```{r}
gapminder %>% 
  nest(year:gdpPercap)
```
```
#> # A tibble: 142 × 3
#>       country continent              data
#>        <fctr>    <fctr>            <list>
#> 1 Afghanistan      Asia <tibble [12 × 4]>
#> 2     Albania    Europe <tibble [12 × 4]>
#> 3     Algeria    Africa <tibble [12 × 4]>
#> 4      Angola    Africa <tibble [12 × 4]>
#> 5   Argentina  Americas <tibble [12 × 4]>
#> 6   Australia   Oceania <tibble [12 × 4]>
#> # ... with 136 more rows
```
…
使用 `unnest()` 可以解嵌套：
```{r}
df %>% 
  mutate(x2 = stringr::str_split(x1, ",")) %>% 
  unnest()
```
```
#> # A tibble: 7 × 2
#>        x1    x2
#>     <chr> <chr>
#> 1   a,b,c     a
#> 2   a,b,c     b
#> 3   a,b,c     c
#> 4 d,e,f,g     d
#> 5 d,e,f,g     e
#> 6 d,e,f,g     f
#> # ... with 1 more rows
```
…
使用 `unnest()` 可以解嵌套：
```{r}
probs <- c(0.01, 0.25, 0.5, 0.75, 0.99)
mtcars %>% 
  group_by(cyl) %>% 
  summarise(p = list(probs), q = list(quantile(mpg, probs))) %>% 
  unnest()
```
```
#> # A tibble: 15 × 3
#>     cyl     p     q
#>   <dbl> <dbl> <dbl>
#> 1     4  0.01  21.4
#> 2     4  0.25  22.8
#> 3     4  0.50  26.0
#> 4     4  0.75  30.4
#> 5     4  0.99  33.8
#> 6     6  0.01  17.8
#> # ... with 9 more rows
```
…
