…
ggplot(diamonds2, aes(lcarat, lresid2)) + 
  geom_hex(bins = 50)
```

发现有一些残差很大的样本点，残差为2代表实际价格是预测价格的4倍，将异常值提取出来以便进一步观察：
```{r}
diamonds2 %>% 
  filter(abs(lresid2) > 1) %>% 
  add_predictions(mod_diamond2) %>% 
  mutate(pred = round(2 ^ pred)) %>% 
  select(price, pred, carat:table, x:z) %>% 
  arrange(price)
```
```
#> # A tibble: 16 × 11
#>   price  pred carat     cut color clarity depth table     x     y     z
#>   <int> <dbl> <dbl>   <ord> <ord>   <ord> <dbl> <dbl> <dbl> <dbl> <dbl>
#> 1  1013   264  0.25    Fair     F     SI2  54.4    64  4.30  4.23  2.32
#> 2  1186   284  0.25 Premium     G     SI2  59.0    60  5.33  5.28  3.12
#> 3  1186   284  0.25 Premium     G     SI2  58.8    60  5.33  5.28  3.12
#> 4  1262  2644  1.03    Fair     E      I1  78.2    54  5.72  5.59  4.42
#> 5  1415   639  0.35    Fair     G     VS2  65.9    54  5.57  5.53  3.66
#> 6  1415   639  0.35    Fair     G     VS2  65.9    54  5.57  5.53  3.66
#> # ... with 10 more rows
```

数据中并未看出明显的异常，可能是模型的问题，也可能是数据本身的问题。

# 3 哪些因素会影响一天的航班数？
计算每天航班数，并进行可视化：
```{r}
daily <- flights %>% 
  mutate(date = make_date(year, month, day)) %>% 
  group_by(date) %>% 
  summarise(n = n())

daily
```
```
#> # A tibble: 365 × 2
#>         date     n
#>       <date> <int>
#> 1 2013-01-01   842
#> 2 2013-01-02   943
#> 3 2013-01-03   914
#> 4 2013-01-04   915
#> 5 2013-01-05   720
#> 6 2013-01-06   832
#> # ... with 359 more rows
```
…
可以看出模型没有很好地预测周六的航班数：夏天的实际航班数高于预测值，冬天的实际航班数低于预测值。

+ 2 某些天的实际航班数远低于预测值：
```{r}
daily %>% 
  filter(resid < -100)
```
```
#> # A tibble: 11 × 4
#>         date     n  wday resid
#>       <date> <int> <ord> <dbl>
#> 1 2013-01-01   842  Tues  -109
#> 2 2013-01-20   786   Sun  -105
#> 3 2013-05-26   729   Sun  -162
#> 4 2013-07-04   737 Thurs  -229
#> 5 2013-07-05   822   Fri  -145
#> 6 2013-09-01   718   Sun  -173
#> # ... with 5 more rows
```
…
