…
+ 用 `purrr::map2_dbl` 组合以上函数，批量计算模型的距离：
```{r}
sim1_dist <- function(a1, a2) {
  measure_distance(c(a1, a2), sim1)
}

models <- models %>% 
  mutate(dist = purrr::map2_dbl(a1, a2, sim1_dist))
models
```
```
#> # A tibble: 250 × 3
#>            a1           a2      dist
#>         <dbl>        <dbl>     <dbl>
#> 1   -4.878081 -0.914413459 26.885925
#> 2  -14.987282 -2.157222934 44.098974
#> 3   16.571345  0.505754992  6.249382
#> 4   35.210963  0.003215531 20.692864
#> 5   12.992904 -0.694036279 10.332930
#> 6   -0.411560  0.731573482 12.662012
#> 7  -12.430836 -4.215110161 54.236366
#> 8   38.289207 -1.320057074 18.420816
#> 9    6.416328  2.966338310  7.978841
#> 10  -1.994431 -1.145950838 25.600462
#> # ... with 240 more rows
```
…
# 3 模型可视化
## 3.1 预测
+ `modelr::data_grid()` 接收数据集，并对指定变量的唯一值生成所有的组合：
```{r}
grid <- sim1 %>% 
  data_grid(x) 
grid
```
```
#> # A tibble: 10 × 1
#>       x
#>   <int>
#> 1     1
#> 2     2
#> 3     3
#> 4     4
#> 5     5
#> 6     6
#> # ... with 4 more rows
```
…
这种 `geom_line()` 与 `add_predictions()` 的合用方法与上节中求出参数后用 `geom_abline()` 相比，优势在于可以应用于 R 中所有的模型。

## 3.2 残差
+ `add_residuals()` 接收数据集和模型，将残差作为新列添加在数据集中：
```{r}
sim1 <- sim1 %>% 
  add_residuals(sim1_mod)
sim1
```
```
#> # A tibble: 30 × 3
#>        x         y        resid
#>    <int>     <dbl>        <dbl>
#> 1      1  4.199913 -2.072442018
#> 2      1  7.510634  1.238279125
#> 3      1  2.125473 -4.146882207
#> 4      2  8.988857  0.664969362
#> 5      2 10.243105  1.919217378
#> 6      2 11.296823  2.972935148
#> 7      3  7.356365 -3.019056466
#> 8      3 10.505349  0.129928252
#> 9      3 10.511601  0.136179642
#> 10     4 12.434589  0.007634878
#> # ... with 20 more rows
```
…
`gather_predictions()` 可以同时对多个模型生成预测值：
```{r}
grid <- sim3 %>% 
  data_grid(x1, x2) %>% 
  gather_predictions(mod1, mod2)

grid
```
```
#> # A tibble: 80 × 4
#>   model    x1     x2  pred
#>   <chr> <int> <fctr> <dbl>
#> 1  mod1     1      a  1.67
#> 2  mod1     1      b  4.56
#> 3  mod1     1      c  6.48
#> 4  mod1     1      d  4.03
#> 5  mod1     2      a  1.48
#> 6  mod1     2      b  4.37
#> # ... with 74 more rows
```

`spread_predictions()` 也可以同时对多个模型生成预测值，每个模型的预测值单独成列：
```{r}
sim3 %>% 
  data_grid(x1, x2) %>% 
  spread_predictions(mod1, mod2)
```
```
#> # A tibble: 40 × 4
#>       x1     x2     mod1     mod2
#>    <int> <fctr>    <dbl>    <dbl>
#> 1      1      a 1.674928 1.208218
#> 2      1      b 4.562739 7.517313
#> 3      1      c 6.480664 5.707266
#> 4      1      d 4.034515 2.320049
#> 5      2      a 1.478190 1.115194
#> 6      2      b 4.366001 6.664003
#> 7      2      c 6.283926 5.682395
#> 8      2      d 3.837777 2.504303
#> 9      3      a 1.281453 1.022169
#> 10     3      b 4.169263 5.810693
#> # ... with 30 more rows
```
…
grid <- sim4 %>% 
  data_grid(
    x1 = seq_range(x1, 5), 
    x2 = seq_range(x2, 5) 
  ) %>% 
  gather_predictions(mod1, mod2)

grid
```
```
#> # A tibble: 50 × 4
#>   model    x1    x2   pred
#>   <chr> <dbl> <dbl>  <dbl>
#> 1  mod1  -1.0  -1.0  0.996
#> 2  mod1  -1.0  -0.5 -0.395
#> 3  mod1  -1.0   0.0 -1.786
#> 4  mod1  -1.0   0.5 -3.177
#> 5  mod1  -1.0   1.0 -4.569
#> 6  mod1  -0.5  -1.0  1.907
#> # ... with 44 more rows
```
…
