…
# 2 `nycflights13` 包
`nycflights13` 包中包含了4个 与 `flights` 数据集相关联的 `tibble` ：  

+ `airlines` 包含航空公司的全称和代码
```{r}
airlines
```

```
#> # A tibble: 16 × 2
#>   carrier                     name
#>     <chr>                    <chr>
#> 1      9E        Endeavor Air Inc.
#> 2      AA   American Airlines Inc.
#> 3      AS     Alaska Airlines Inc.
#> 4      B6          JetBlue Airways
#> 5      DL     Delta Air Lines Inc.
#> 6      EV ExpressJet Airlines Inc.
#> # ... with 10 more rows
```

+ `airports` 包含机场的信息，机场代码为 `faa`
```{r}
airports
```

```
#> # A tibble: 1,396 × 7
#>     faa                           name   lat   lon   alt    tz   dst
#>   <chr>                          <chr> <dbl> <dbl> <int> <dbl> <chr>
#> 1   04G              Lansdowne Airport  41.1 -80.6  1044    -5     A
#> 2   06A  Moton Field Municipal Airport  32.5 -85.7   264    -5     A
#> 3   06C            Schaumburg Regional  42.0 -88.1   801    -6     A
#> 4   06N                Randall Airport  41.4 -74.4   523    -5     A
#> 5   09J          Jekyll Island Airport  31.1 -81.4    11    -4     A
#> 6   0A9 Elizabethton Municipal Airport  36.4 -82.2  1593    -4     A
#> # ... with 1,390 more rows
```

+ `planes` 包含航班的信息，由 `tailnum` 标识
```{r}
planes
```

```
#> # A tibble: 3,322 × 9
#>   tailnum  year                    type     manufacturer     model engines
#>     <chr> <int>                   <chr>            <chr>     <chr>   <int>
#> 1  N10156  2004 Fixed wing multi engine          EMBRAER EMB-145XR       2
#> 2  N102UW  1998 Fixed wing multi engine AIRBUS INDUSTRIE  A320-214       2
#> 3  N103US  1999 Fixed wing multi engine AIRBUS INDUSTRIE  A320-214       2
#> 4  N104UW  1999 Fixed wing multi engine AIRBUS INDUSTRIE  A320-214       2
#> 5  N10575  2002 Fixed wing multi engine          EMBRAER EMB-145LR       2
#> 6  N105UW  1999 Fixed wing multi engine AIRBUS INDUSTRIE  A320-214       2
#> # ... with 3,316 more rows, and 3 more variables: seats <int>,
#> #   speed <int>, engine <chr>
```
…
+ `semi_join(x, y)` **保留** `x` 表中所有在 `y` 表中有匹配的观测

+ `anti_join(x, y)` **删除** `x` 表中所有在 `y` 表中有匹配的观测

## 5.1 semi_join
`semi_join()` 适用于用统计表来过滤原始表。例如，首先计算出最热门的10个目的地：
```{r}
top_dest <- flights %>%
  count(dest, sort = TRUE) %>%
  head(10)

top_dest
```
```
#> # A tibble: 10 × 2
#>    dest     n
#>   <chr> <int>
#> 1   ORD 17283
#> 2   ATL 17215
#> 3   LAX 16174
#> 4   BOS 15508
#> 5   MCO 14082
#> 6   CLT 14064
#> # ... with 4 more rows
```
…
`anti_join()` 适用于观察联结中不匹配的情况。例如，找出 `flights` 表中所有在 `planes` 表中没有匹配的观测：
```{r}
flights %>%
  anti_join(planes, by = "tailnum") %>%
  count(tailnum, sort = TRUE)
```
```
#> # A tibble: 722 × 2
#>   tailnum     n
#>     <chr> <int>
#> 1    <NA>  2512
#> 2  N725MQ   575
#> 3  N722MQ   513
#> 4  N723MQ   507
#> 5  N713MQ   483
#> 6  N735MQ   396
#> # ... with 716 more rows
```
…
