…
该方法在与 `purrr:pwalk()` 合用时非常方便，可以批量产出报告：
```{r, eval = FALSE}
reports <- tibble(
  class = unique(mpg$class),
  filename = stringr::str_c("fuel-economy-", class, ".html"),
  params = purrr::map(class, ~ list(my_class = .))
)
reports
```
```
#> # A tibble: 7 × 3
#>     class                  filename     params
#>     <chr>                     <chr>     <list>
#> 1 compact fuel-economy-compact.html <list [1]>
#> 2 midsize fuel-economy-midsize.html <list [1]>
#> 3     suv     fuel-economy-suv.html <list [1]>
#> 4 2seater fuel-economy-2seater.html <list [1]>
#> 5 minivan fuel-economy-minivan.html <list [1]>
#> 6  pickup  fuel-economy-pickup.html <list [1]>
#> # ... with 1 more rows
```
…
