…
```
计算平均每个单词里有多少个元音字母：
```{r}
mean(str_count(words, "[aeiou]"))
```
`str_count()` 和 `mutate` 合用：
```{r}
df %>% 
  mutate(
    vowels = str_count(word, "[aeiou]"),
    consonants = str_count(word, "[^aeiou]")
  )
```
```
#> # A tibble: 980 × 4
#>       word     i vowels consonants
#>      <chr> <int>  <int>      <int>
#> 1        a     1      1          0
#> 2     able     2      2          2
#> 3    about     3      3          2
#> 4 absolute     4      4          4
#> 5   accept     5      2          4
#> 6  account     6      3          4
#> # ... with 974 more rows
```
…
如果数据以 `tibble` 形式存在， `tidyr::extract()` 也可以达到同样的目的，不同之处是需要给每一列命名：
```{r}
tibble(sentence = sentences) %>% 
  tidyr::extract(
    sentence, c("article", "noun"), "(a|the) ([^ ]+)", 
    remove = FALSE
  )
```
```
#> # A tibble: 720 × 3
#>                                      sentence article    noun
#> *                                       <chr>   <chr>   <chr>
#> 1  The birch canoe slid on the smooth planks.     the  smooth
#> 2 Glue the sheet to the dark blue background.     the   sheet
#> 3      It's easy to tell the depth of a well.     the   depth
#> 4    These days a chicken leg is a rare dish.       a chicken
#> 5        Rice is often served in round bowls.    <NA>    <NA>
#> 6       The juice of lemons makes fine punch.    <NA>    <NA>
#> # ... with 714 more rows
```
…
