…
## 1.1 载入包
```{r}
library(tidyverse)
```

# 2 创建 `tibble`
## 2.1 用 `as_tibble()` 将 `data.frame` 转化为 `tibble`  

```{r}
as_tibble(iris)
```
```
#> # A tibble: 150 × 5
#>   Sepal.Length Sepal.Width Petal.Length Petal.Width Species
#>          <dbl>       <dbl>        <dbl>       <dbl>  <fctr>
#> 1          5.1         3.5          1.4         0.2  setosa
#> 2          4.9         3.0          1.4         0.2  setosa
#> 3          4.7         3.2          1.3         0.2  setosa
#> 4          4.6         3.1          1.5         0.2  setosa
#> 5          5.0         3.6          1.4         0.2  setosa
#> 6          5.4         3.9          1.7         0.4  setosa
#> # ... with 144 more rows
```
…
# 3 `Tibbles` vs. `data.frame`
## 3.1 Printing
`tibbles` 只显示开头的10行，并且会调整显示的列数以适应屏幕大小，还会报告每个变量的数据类型
```{r}
tibble(
  a = lubridate::now() + runif(1e3) * 86400,
  b = lubridate::today() + runif(1e3) * 30,
  c = 1:1e3,
  d = runif(1e3),
  e = sample(letters, 1e3, replace = TRUE)
)
```
```
#> # A tibble: 1,000 × 5
#>                     a          b     c     d     e
#>                <dttm>     <date> <int> <dbl> <chr>
#> 1 2016-12-02 20:12:04 2016-12-09     1 0.368     h
#> 2 2016-12-03 14:17:13 2016-12-14     2 0.612     n
#> 3 2016-12-03 08:40:52 2016-12-24     3 0.415     l
#> 4 2016-12-02 22:02:10 2016-12-23     4 0.212     x
#> 5 2016-12-02 18:26:26 2016-12-20     5 0.733     a
#> 6 2016-12-03 05:27:23 2016-12-16     6 0.460     v
#> # ... with 994 more rows
```
…
