…
#> # A tibble: 6 × 4
#>       country  year  cases population
#>         <chr> <int>  <int>      <int>
#> 1 Afghanistan  1999    745   19987071
#> 2 Afghanistan  2000   2666   20595360
#> 3      Brazil  1999  37737  172006362
#> 4      Brazil  2000  80488  174504898
#> 5       China  1999 212258 1272915272
#> 6       China  2000 213766 1280428583
```
```{r}
table2
```
```
#> # A tibble: 12 × 4
#>       country  year       type     count
#>         <chr> <int>      <chr>     <int>
#> 1 Afghanistan  1999      cases       745
#> 2 Afghanistan  1999 population  19987071
#> 3 Afghanistan  2000      cases      2666
#> 4 Afghanistan  2000 population  20595360
#> 5      Brazil  1999      cases     37737
#> 6      Brazil  1999 population 172006362
#> # ... with 6 more rows
```
…
## 3.2 Spreading
`spread()` 是 `gather()` 的反操作。在某些数据集中，一个观测分散在好几个行中。例如 `table2` ：每一个观测分散在两行中。
```{r}
table2
```
```
#> # A tibble: 12 × 4
#>       country  year       type     count
#>         <chr> <int>      <chr>     <int>
#> 1 Afghanistan  1999      cases       745
#> 2 Afghanistan  1999 population  19987071
#> 3 Afghanistan  2000      cases      2666
#> 4 Afghanistan  2000 population  20595360
#> 5      Brazil  1999      cases     37737
#> 6      Brazil  1999 population 172006362
#> # ... with 6 more rows
```
…
+ 使用 `complete()` 函数将隐式缺失值转化为显式缺失值：
```{r}
stocks %>% 
  complete(year, qtr)
```
```
#> # A tibble: 8 × 3
#>    year   qtr return
#>   <dbl> <dbl>  <dbl>
#> 1  2015     1   1.88
#> 2  2015     2   0.59
#> 3  2015     3   0.35
#> 4  2015     4     NA
#> 5  2016     1     NA
#> 6  2016     2   0.92
#> # ... with 2 more rows
```
…
# 6 案例学习
`tidyr::who` 数据集包含了肺结核病例。这是一个典型的实践中会遇到的数据集，包含了冗余的列，奇怪的变量编码，以及非常多的缺失值。
```{r}
who
```
```
#> # A tibble: 7,240 × 60
#>       country  iso2  iso3  year new_sp_m014 new_sp_m1524 new_sp_m2534
#>         <chr> <chr> <chr> <int>       <int>        <int>        <int>
#> 1 Afghanistan    AF   AFG  1980          NA           NA           NA
#> 2 Afghanistan    AF   AFG  1981          NA           NA           NA
#> 3 Afghanistan    AF   AFG  1982          NA           NA           NA
#> 4 Afghanistan    AF   AFG  1983          NA           NA           NA
#> 5 Afghanistan    AF   AFG  1984          NA           NA           NA
#> 6 Afghanistan    AF   AFG  1985          NA           NA           NA
#> # ... with 7,234 more rows, and 53 more variables: new_sp_m3544 <int>,
#> #   new_sp_m4554 <int>, new_sp_m5564 <int>, new_sp_m65 <int>,
#> #   new_sp_f014 <int>, new_sp_f1524 <int>, new_sp_f2534 <int>,
#> #   new_sp_f3544 <int>, new_sp_f4554 <int>, new_sp_f5564 <int>,
#> #   new_sp_f65 <int>, new_sn_m014 <int>, new_sn_m1524 <int>,
#> #   new_sn_m2534 <int>, new_sn_m3544 <int>, new_sn_m4554 <int>,
#> #   new_sn_m5564 <int>, new_sn_m65 <int>, new_sn_f014 <int>,
#> #   new_sn_f1524 <int>, new_sn_f2534 <int>, new_sn_f3544 <int>,
#> #   new_sn_f4554 <int>, new_sn_f5564 <int>, new_sn_f65 <int>,
…
+ 2 对 `key` 列的取值进行计数，可以得到一些关于该列取值含义的提示。
```{r}
who1 %>% 
  count(key)
```
```
#> # A tibble: 56 × 2
#>            key     n
#>          <chr> <int>
#> 1  new_ep_f014  1032
#> 2 new_ep_f1524  1021
#> 3 new_ep_f2534  1021
#> 4 new_ep_f3544  1021
#> 5 new_ep_f4554  1017
#> 6 new_ep_f5564  1017
#> # ... with 50 more rows
```
…
